[
  {
    "_id": "c2fdc564-eaf0-4e5d-855a-d76fc429ce27",
    "colId": "history",
    "containerId": "",
    "name": " http://localhost:8000/api/article",
    "url": "http://localhost:8000/api/article",
    "method": "GET",
    "sortNum": 0,
    "created": "2023-02-08T13:23:16.380Z",
    "modified": "2023-02-16T09:58:47.084Z",
    "headers": [],
    "params": [],
    "tests": []
  },
  {
    "_id": "cecd0b2e-3f90-4cfb-83b2-23a02027b00a",
    "colId": "history",
    "containerId": "",
    "name": "http://localhost:8000/api/article",
    "url": "http://localhost:8000/api/article",
    "method": "GET",
    "sortNum": 0,
    "created": "2023-02-08T13:28:47.632Z",
    "modified": "2023-02-08T13:28:47.632Z",
    "headers": [],
    "params": [],
    "tests": []
  },
  {
    "_id": "dad2e99f-5a57-4b08-8391-e5204f52c3f7",
    "colId": "history",
    "containerId": "",
    "name": "http://localhost:8000/api/article",
    "url": "http://localhost:8000/api/article",
    "method": "POST",
    "sortNum": 0,
    "created": "2023-02-08T14:26:29.446Z",
    "modified": "2023-02-09T13:10:50.666Z",
    "headers": [],
    "params": [],
    "body": {
      "type": "json",
      "raw": "{\n  \n    \"img\": \"\",\n    \"title\": \"test\",\n    \"content\": \"blabla\",\n    \"date\": \"2023-01-01\",\n    \"author\":\"moi\",\n    \"id_category\": 4\n  \n  \n  \n}",
      "form": []
    },
    "tests": []
  },
  {
    "_id": "d8aecf64-9750-4924-b346-a68f020d7684",
    "colId": "history",
    "containerId": "",
    "name": "http://localhost:8000/api/article/3",
    "url": "http://localhost:8000/api/article/{3}",
    "method": "PUT",
    "sortNum": 0,
    "created": "2023-02-09T13:06:42.169Z",
    "modified": "2023-02-09T13:07:45.000Z",
    "headers": [],
    "params": [
      {
        "name": "3",
        "value": "",
        "isPath": true
      }
    ],
    "body": {
      "type": "json",
      "raw": "{\n  \n    \"img\": \"\",\n    \"title\": \"test\",\n    \"content\": \"blublublu\",\n    \"date\": \"2023-01-01\",\n    \"author\":\"moi\",\n    \"id_category\": 2\n    \n  \n  \n  \n}",
      "form": []
    },
    "tests": []
  },
  {
    "_id": "48c24592-9de0-420a-abb1-4f19106b5f50",
    "colId": "history",
    "containerId": "",
    "name": "http://localhost:8000/api/article/3",
    "url": "http://localhost:8000/api/article/3",
    "method": "DELETE",
    "sortNum": 0,
    "created": "2023-02-09T13:10:04.051Z",
    "modified": "2023-02-09T13:10:04.051Z",
    "headers": [],
    "params": [],
    "tests": []
  },
  {
    "_id": "b2069d65-b667-4a72-a6d7-88e035dcd4c1",
    "colId": "history",
    "containerId": "",
    "name": "http://localhost:8000/api/article/",
    "url": "http://localhost:8000/api/article/",
    "method": "GET",
    "sortNum": 0,
    "created": "2023-02-09T13:10:12.966Z",
    "modified": "2023-02-09T13:10:12.966Z",
    "headers": [],
    "params": [],
    "tests": []
  },
  {
    "_id": "717893d2-b76c-4f63-b810-53e7a616dc23",
    "colId": "history",
    "containerId": "",
    "name": "http://localhost:8000/api/article/3",
    "url": "http://localhost:8000/api/article/6",
    "method": "PUT",
    "sortNum": 0,
    "created": "2023-02-09T13:12:13.973Z",
    "modified": "2023-02-13T12:14:01.978Z",
    "headers": [],
    "params": [],
    "body": {
      "type": "json",
      "raw": "{ \n    \"id\": 4,\n    \"img\": \"\",\n    \"title\": \"test\",\n    \"content\": \"blublublu\",\n    \"date\": \"2023-01-01\",\n    \"author\":\"moi\",\n    \"id_category\": 2\n    \n  \n  \n  \n}",
      "form": []
    },
    "tests": []
  },
  {
    "_id": "b32584da-df3e-44b7-a367-e95c90e689b0",
    "colId": "history",
    "containerId": "",
    "name": "http://localhost:8000/api/article/3",
    "url": "http://localhost:8000/api/article/3",
    "method": "PATCH",
    "sortNum": 0,
    "created": "2023-02-09T13:18:06.872Z",
    "modified": "2023-02-09T13:18:06.872Z",
    "headers": [],
    "params": [],
    "body": {
      "type": "json",
      "raw": "{ \n    \"id\": \"4\",\n    \"img\": \"\",\n    \"title\": \"test\",\n    \"content\": \"blublublu\",\n    \"date\": \"2023-01-01\",\n    \"author\":\"moi\",\n    \"id_category\": 2\n    \n  \n  \n  \n}",
      "form": []
    },
    "tests": []
  },
  {
    "_id": "6b916dd8-af54-4860-aed8-38c52b6d7905",
    "colId": "history",
    "containerId": "",
    "name": "http://localhost:8000/api/article/4",
    "url": "http://localhost:8000/api/article/4",
    "method": "PATCH",
    "sortNum": 0,
    "created": "2023-02-09T13:22:11.585Z",
    "modified": "2023-02-09T13:24:01.790Z",
    "headers": [],
    "params": [],
    "body": {
      "type": "json",
      "raw": "{ \n    \"id\": \"4\",\n    \"img\": \"\",\n    \"title\": \"test\",\n    \"content\": \"blublublu\",\n    \"date\": \"2023-01-01\",\n    \"author\":\"moi\",\n    \"id_category\": 2\n    \n}",
      "form": []
    },
    "tests": []
  },
  {
    "_id": "ed3e7c3b-0016-4198-8002-4bd92bf91233",
    "colId": "history",
    "containerId": "",
    "name": "http://localhost:8000/api/category",
    "url": "http://localhost:8000/api/category",
    "method": "GET",
    "sortNum": 0,
    "created": "2023-02-09T15:42:40.164Z",
    "modified": "2023-02-09T15:42:40.164Z",
    "headers": [],
    "params": [],
    "tests": []
  },
  {
    "_id": "60f8b01a-a6fa-4877-a7dc-f01073845bec",
    "colId": "history",
    "containerId": "",
    "name": "http://localhost:8000/api/category",
    "url": "http://localhost:8000/api/category",
    "method": "POST",
    "sortNum": 0,
    "created": "2023-02-09T15:46:26.495Z",
    "modified": "2023-02-09T15:46:35.188Z",
    "headers": [],
    "params": [],
    "body": {
      "type": "json",
      "raw": "\n  {\n    \"id\": 8,\n    \"name\": \"test\"\n}",
      "form": []
    },
    "tests": []
  },
  {
    "_id": "122684db-aa6c-4f6c-b98d-7d7b96c889f6",
    "colId": "history",
    "containerId": "",
    "name": "http://localhost:8000/api/category",
    "url": "http://localhost:8000/api/category",
    "method": "PATCH",
    "sortNum": 0,
    "created": "2023-02-09T15:48:14.009Z",
    "modified": "2023-02-09T15:48:14.009Z",
    "headers": [],
    "params": [],
    "body": {
      "type": "json",
      "raw": "{\n  \"id\":8,\n  \"name\":\"tust\"\n}",
      "form": []
    },
    "tests": []
  },
  {
    "_id": "f80ede71-3586-45f4-9b16-00fc9f41aff1",
    "colId": "history",
    "containerId": "",
    "name": "http://localhost:8000/api/category/7",
    "url": "http://localhost:8000/api/category/5",
    "method": "PUT",
    "sortNum": 0,
    "created": "2023-02-09T15:48:55.934Z",
    "modified": "2023-02-13T12:08:11.028Z",
    "headers": [],
    "params": [],
    "body": {
      "type": "json",
      "raw": "{\n  \"id\":8,\n  \"name\":\"tust\"\n}",
      "form": []
    },
    "tests": []
  },
  {
    "_id": "b0fe38dc-3fb6-4427-bc01-d4d8f29a70b7",
    "colId": "history",
    "containerId": "",
    "name": "http://localhost:8000/api/category/7",
    "url": "http://localhost:8000/api/category/7",
    "method": "DELETE",
    "sortNum": 0,
    "created": "2023-02-09T15:49:33.083Z",
    "modified": "2023-02-09T15:49:33.083Z",
    "headers": [],
    "params": [],
    "tests": []
  },
  {
    "_id": "cc2f71dc-7b6d-4caa-a04c-a97a223446e8",
    "colId": "history",
    "containerId": "",
    "name": "http://localhost:8000/api/article/1",
    "url": "http://localhost:8000/api/article/1",
    "method": "GET",
    "sortNum": 0,
    "created": "2023-02-14T12:57:02.007Z",
    "modified": "2023-02-14T12:57:02.007Z",
    "headers": [],
    "params": [],
    "tests": []
  },
  {
    "_id": "46b91ff0-0f6d-48cd-9fd9-5af97a77469c",
    "colId": "history",
    "containerId": "",
    "name": "http://localhost:8000/api/article/2",
    "url": "http://localhost:8000/api/article/2",
    "method": "GET",
    "sortNum": 0,
    "created": "2023-02-14T13:21:51.902Z",
    "modified": "2023-02-14T13:21:51.902Z",
    "headers": [],
    "params": [],
    "tests": []
  }
]